[
    {
        "id": 1,
        "stageID": 1,
        "openDay": 1,
        "LLJKOKNFJNL": "BRICK_BREAKER_TYPE_WORLD",
        "levelID": 1001,
        "GAMMOCGGIML": 7272801,
        "IHHKHHNOBJG": 7272802,
        "EHDEMGOKAML": 3762186181,
        "JDFEPFFJNCO": 2963753266
    },
    {
        "id": 2,
        "stageID": 1,
        "openDay": 1,
        "LLJKOKNFJNL": "BRICK_BREAKER_TYPE_DUNGEON",
        "levelID": 100301,
        "GAMMOCGGIML": 7272901,
        "IHHKHHNOBJG": 7272902,
        "EHDEMGOKAML": 3114712125,
        "JDFEPFFJNCO": 525052258
    },
    {
        "id": 3,
        "stageID": 2,
        "openDay": 3,
        "LLJKOKNFJNL": "BRICK_BREAKER_TYPE_WORLD",
        "levelID": 2001,
        "GAMMOCGGIML": 4009001,
        "IHHKHHNOBJG": 4009012,
        "EHDEMGOKAML": 2487915629,
        "JDFEPFFJNCO": 2185094698
    },
    {
        "id": 4,
        "stageID": 3,
        "openDay": 5,
        "LLJKOKNFJNL": "BRICK_BREAKER_TYPE_WORLD",
        "levelID": 3001,
        "GAMMOCGGIML": 4009101,
        "IHHKHHNOBJG": 4009116,
        "EHDEMGOKAML": 3463084613,
        "JDFEPFFJNCO": 1689151778
    }
]