[
    {
        "AOLNEBPKGFO": 100,
        "OEMKNFFOCKL": 411
    },
    {
        "type": "GCG_ELEMENT_CRYO",
        "AOLNEBPKGFO": 101,
        "OEMKNFFOCKL": 301,
        "OAPBONCDKNA": 201,
        "DOOMPMNMMLA": 111
    },
    {
        "type": "GCG_ELEMENT_HYDRO",
        "AOLNEBPKGFO": 102,
        "OEMKNFFOCKL": 302,
        "OAPBONCDKNA": 202,
        "DOOMPMNMMLA": 112
    },
    {
        "type": "GCG_ELEMENT_PYRO",
        "AOLNEBPKGFO": 103,
        "OEMKNFFOCKL": 303,
        "OAPBONCDKNA": 203,
        "DOOMPMNMMLA": 113
    },
    {
        "type": "GCG_ELEMENT_ELECTRO",
        "AOLNEBPKGFO": 104,
        "OEMKNFFOCKL": 304,
        "OAPBONCDKNA": 204,
        "DOOMPMNMMLA": 114
    },
    {
        "type": "GCG_ELEMENT_ANEMO",
        "AOLNEBPKGFO": 105,
        "OEMKNFFOCKL": 305,
        "DOOMPMNMMLA": 115
    },
    {
        "type": "GCG_ELEMENT_GEO",
        "AOLNEBPKGFO": 106,
        "OEMKNFFOCKL": 306,
        "DOOMPMNMMLA": 116
    },
    {
        "type": "GCG_ELEMENT_DENDRO",
        "AOLNEBPKGFO": 107,
        "OEMKNFFOCKL": 307,
        "OAPBONCDKNA": 207,
        "DOOMPMNMMLA": 117
    }
]